com/webjaguarsage/integration/entity/Opportunity.class
com/webjaguarsage/integration/helpher/EntityMappingHelpher.class
com/webjaguarsage/integration/entity/JournalObject.class
com/webjaguarsage/integration/entity/CompositeRequest.class
com/webjaguarsage/integration/entity/OpportunityContactRole.class
com/webjaguarsage/integration/entity/Product2.class
com/webjaguarsage/integration/entity/WebjaguarSageException.class
com/webjaguarsage/integration/entity/Account.class
com/webjaguarsage/integration/config/SageClientConfig.class
com/webjaguarsage/integration/helpher/HttpHelperIml.class
com/webjaguarsage/integration/entity/Address.class
com/webjaguarsage/integration/entity/Contact.class
com/webjaguarsage/integration/entity/BillingAddress.class
com/webjaguarsage/integration/entity/AccountWithMap.class
com/webjaguarsage/integration/entity/Tag.class
com/webjaguarsage/integration/entity/to/JsonMap.class
com/webjaguarsage/integration/helpher/HttpHelper.class
com/webjaguarsage/integration/entity/PricebookEntry.class
com/webjaguarsage/integration/entity/Item.class
com/webjaguarsage/integration/entity/JournalPostTO.class
com/webjaguarsage/integration/SageClient.class
com/webjaguarsage/integration/entity/NewAccount.class
com/webjaguarsage/integration/entity/RequiredFieldAbstract.class
com/webjaguarsage/integration/entity/AccountAuthorizationConfig.class
com/webjaguarsage/integration/entity/CompositeRequestRecord.class
com/webjaguarsage/integration/entity/ProductJSONPost.class
com/webjaguarsage/integration/config/Constants.class
com/webjaguarsage/integration/entity/OpportunityLineItem.class
